…
--------------------------


##Section 5.7.1 

###Exercises 2: Which plane (tailnum) has the worst on-time record?
Answer: If we define worst on-time record as largest mean arr_delay. From output, tialnum N844MH with mean arr_delay 320 has the worst on-time record.

> flights %>% 
+   group_by(tailnum) %>%
+   filter(arr_delay>0) %>%
+   summarize(mean_delay = mean(arr_delay)) %>%
+   arrange(desc(mean_delay))
# A tibble: 3,874 x 2
   tailnum mean_delay
   <chr>        <dbl>
 1 N844MH         320
 2 N911DA         294
 3 N922EV         276
 4 N665MQ         270
 5 N587NW         264
 6 N828AW         229
 7 N851NW         219
 8 N928DN         201
 9 N305AS         196
10 N907MQ         191
# ... with 3,864 more rows
…
